Transparent and Reproducible Research with R (Part 1)
…
---
# The hard part
* Getting your data in the format you want a table in

* Utilize your `gather`/`spread` skills regularly

```r
library(fivethirtyeight)
flying
```

```
## # A tibble: 1,040 x 27
##    respondent_id gender age   height children_under_… household_income
##            <dbl> <chr>  <ord> <ord>  <lgl>            <ord>           
##  1    3436139758 <NA>   <NA>  <NA>   NA               <NA>            
##  2    3434278696 Male   30-44 "6'3\… TRUE             <NA>            
##  3    3434275578 Male   30-44 "5'8\… FALSE            $100,000 - $149…
##  4    3434268208 Male   30-44 "5'11… FALSE            $0 - $24,999    
##  5    3434250245 Male   30-44 "5'7\… FALSE            $50,000 - $99,9…
##  6    3434245875 Male   30-44 "5'9\… TRUE             $25,000 - $49,9…
##  7    3434235351 Male   30-44 "6'2\… TRUE             <NA>            
##  8    3434218031 Male   30-44 "6'0\… TRUE             $0 - $24,999    
##  9    3434213681 <NA>   <NA>  "6'0\… TRUE             <NA>            
## 10    3434172894 Male   30-44 "5'6\… FALSE            $0 - $24,999    
## # … with 1,030 more rows, and 21 more variables: education <ord>,
## #   location <chr>, frequency <ord>, recline_frequency <ord>,
## #   recline_obligation <lgl>, recline_rude <ord>, recline_eliminate <lgl>,
## #   switch_seats_friends <ord>, switch_seats_family <ord>,
## #   wake_up_bathroom <ord>, wake_up_walk <ord>, baby <ord>,
## #   unruly_child <ord>, two_arm_rests <chr>, middle_arm_rest <chr>,
## #   shade <chr>, unsold_seat <ord>, talk_stranger <ord>, get_up <ord>,
## #   electronics <lgl>, smoked <lgl>
```
…
